SAMPLE,PercentReads,Domain,PercentReads,Family,PercentReads,Genus,PercentReads,Species,PercentReads,Species
TL003657, 97.45,    Bacteria, 92.36,            Enterobacteriaceae, 83.06,              Enterobacter, 63.84,                Enterobacter cloacae complex,  2.44,unclassified
TL003658, 96.69,    Bacteria, 94.75,            Enterobacteriaceae, 67.17,              Escherichia, 58.83,                Escherichia coli,  2.08,unclassified
TL003659, 96.46,    Bacteria, 94.34,            Enterobacteriaceae, 66.02,              Escherichia, 57.74,                Escherichia coli,  2.34,unclassified
TL003660, 97.30,    Bacteria, 94.16,            Enterobacteriaceae, 81.19,              Klebsiella, 60.73,                Klebsiella pneumoniae,  2.65,unclassified
TL003661, 97.59,    Bacteria, 95.64,            Enterobacteriaceae, 64.26,              Escherichia, 57.11,                Escherichia coli,  1.76,unclassified
TL003662, 88.00,    Bacteria, 83.98,            Enterobacteriaceae, 59.36,              Enterobacter, 51.83,                Enterobacter cloacae complex, 11.93,unclassified
TL003663, 97.08,    Bacteria, 94.49,            Enterobacteriaceae, 40.90,              Escherichia, 35.71,                Escherichia coli,  2.01,unclassified
TL003664, 95.60,    Bacteria, 93.64,            Enterobacteriaceae, 61.38,              Escherichia, 55.08,                Escherichia coli,  3.31,unclassified
TL003665, 97.03,    Bacteria, 94.66,            Enterobacteriaceae, 65.76,              Escherichia, 58.49,                Escherichia coli,  1.74,unclassified
TL003666, 96.49,    Bacteria, 94.09,            Enterobacteriaceae, 56.59,              Escherichia, 50.90,                Escherichia coli,  2.10,unclassified
TL003667, 97.23,    Bacteria, 94.91,            Enterobacteriaceae, 67.31,              Escherichia, 60.71,                Escherichia coli,  1.72,unclassified
TL003668, 94.26,    Bacteria, 92.29,            Enterobacteriaceae, 87.45,              Klebsiella, 75.25,                Klebsiella oxytoca,  5.71,unclassified
TL003669, 97.72,    Bacteria, 95.03,            Enterobacteriaceae, 66.34,              Escherichia, 59.31,                Escherichia coli,  1.96,unclassified
TL003670, 97.11,    Bacteria, 92.66,            Enterobacteriaceae, 61.62,              Escherichia, 55.34,                Escherichia coli,  1.98,unclassified
TL003671, 96.44,    Bacteria, 91.70,            Enterobacteriaceae, 32.77,              Escherichia, 28.70,                Escherichia coli,  1.96,unclassified
TL003672, 96.73,    Bacteria, 94.32,            Enterobacteriaceae, 65.47,              Escherichia, 58.14,                Escherichia coli,  1.75,unclassified
TL003673, 76.11,    Bacteria, 71.56,            Enterobacteriaceae, 57.09,              Citrobacter, 37.22,                Citrobacter freundii complex, 23.41,unclassified
TL003674, 97.21,    Bacteria, 88.96,            Enterobacteriaceae, 62.01,              Escherichia, 55.12,                Escherichia coli,  1.82,unclassified
TL003675, 96.15,    Bacteria, 93.72,            Enterobacteriaceae, 64.11,              Escherichia, 57.13,                Escherichia coli,  2.25,unclassified
TL003676, 95.58,    Bacteria, 92.99,            Enterobacteriaceae, 80.98,              Klebsiella, 68.01,                Klebsiella oxytoca,  4.07,unclassified
TL003677, 87.79,    Bacteria, 83.25,            Enterobacteriaceae, 28.75,              Escherichia, 25.64,                Escherichia coli, 11.41,unclassified
TL003678, 96.99,    Bacteria, 93.25,            Enterobacteriaceae, 78.44,              Klebsiella, 58.29,                Klebsiella pneumoniae,  2.96,unclassified
TL003679, 98.14,    Bacteria, 97.18,            Enterobacteriaceae, 71.14,              Escherichia, 64.85,                Escherichia coli,  0.99,unclassified
TL003680, 98.68,    Bacteria, 97.53,            Enterobacteriaceae, 77.33,              Escherichia, 70.95,                Escherichia coli,  1.05,unclassified
TL003681, 97.07,    Bacteria, 92.33,            Enterobacteriaceae, 60.66,              Escherichia, 54.55,                Escherichia coli,  1.95,unclassified
TL003682, 98.13,    Bacteria, 96.96,            Enterobacteriaceae, 70.59,              Escherichia, 64.32,                Escherichia coli,  1.61,unclassified
TL003683, 97.31,    Bacteria, 95.33,            Enterobacteriaceae, 66.67,              Escherichia, 59.15,                Escherichia coli,  1.77,unclassified
TL003684, 98.61,    Bacteria, 97.45,            Enterobacteriaceae, 76.92,              Escherichia, 70.34,                Escherichia coli,  1.14,unclassified
TL003685, 98.63,    Bacteria, 97.58,            Enterobacteriaceae, 79.04,              Escherichia, 72.19,                Escherichia coli,  0.83,unclassified
TL003686, 96.61,    Bacteria, 94.91,            Enterobacteriaceae, 58.84,              Escherichia, 52.53,                Escherichia coli,  1.87,unclassified
TL003687, 96.52,    Bacteria, 94.86,            Enterobacteriaceae, 58.53,              Escherichia, 52.32,                Escherichia coli,  1.86,unclassified
TL003688, 96.66,    Bacteria, 94.81,            Enterobacteriaceae, 58.85,              Escherichia, 52.58,                Escherichia coli,  1.81,unclassified
TL003689, 96.73,    Bacteria, 95.03,            Enterobacteriaceae, 59.01,              Escherichia, 52.66,                Escherichia coli,  1.81,unclassified
TL003690, 96.69,    Bacteria, 95.05,            Enterobacteriaceae, 59.14,              Escherichia, 52.81,                Escherichia coli,  1.86,unclassified
TL003691, 96.87,    Bacteria, 94.79,            Enterobacteriaceae, 65.80,              Escherichia, 58.25,                Escherichia coli,  2.09,unclassified
TL003692, 96.55,    Bacteria, 94.36,            Enterobacteriaceae, 59.02,              Escherichia, 52.50,                Escherichia coli,  3.05,unclassified
TL003693, 96.41,    Bacteria, 94.17,            Enterobacteriaceae, 59.27,              Escherichia, 52.93,                Escherichia coli,  3.20,unclassified
TL003694, 96.69,    Bacteria, 94.51,            Enterobacteriaceae, 59.16,              Escherichia, 52.59,                Escherichia coli,  2.92,unclassified
TL003695, 96.72,    Bacteria, 94.61,            Enterobacteriaceae, 59.34,              Escherichia, 52.79,                Escherichia coli,  2.83,unclassified
TL003696, 96.80,    Bacteria, 94.42,            Enterobacteriaceae, 59.32,              Escherichia, 52.80,                Escherichia coli,  2.76,unclassified
TL003697, 96.81,    Bacteria, 94.66,            Enterobacteriaceae, 59.39,              Escherichia, 52.85,                Escherichia coli,  2.74,unclassified
TL003698, 96.67,    Bacteria, 94.56,            Enterobacteriaceae, 59.37,              Escherichia, 52.83,                Escherichia coli,  2.89,unclassified
TL003699, 96.79,    Bacteria, 94.64,            Enterobacteriaceae, 59.07,              Escherichia, 52.54,                Escherichia coli,  2.77,unclassified
TL003700, 96.60,    Bacteria, 94.42,            Enterobacteriaceae, 59.15,              Escherichia, 52.61,                Escherichia coli,  2.96,unclassified
TL003701, 96.52,    Bacteria, 94.33,            Enterobacteriaceae, 59.03,              Escherichia, 52.48,                Escherichia coli,  3.03,unclassified
TL003702, 96.95,    Bacteria, 94.89,            Enterobacteriaceae, 59.73,              Escherichia, 53.11,                Escherichia coli,  2.68,unclassified
TL003703, 96.85,    Bacteria, 94.58,            Enterobacteriaceae, 59.13,              Escherichia, 52.56,                Escherichia coli,  2.71,unclassified
