1.2705,1.0075,1.2705,0.468,0.3655,0.3655,0.634,0.205,0.905,1.268,5.7075
0.9995,1.2705,0.731,1.5565,0.205,0.7365,1.268,0.9995,1.268,0.634,3.205
1.268,1.268,0.9995,0.9995,1.2705,0.468,1.268,1.539,0.731,1.544,1.268
1.539,1.539,0.9995,1.2705,2.0835,1.539,3.487,1.544,1.8125,2.0835,0.9995
1.268,0.9995,1.8125,2.359,1.81,2.0835,2.088,2.357,1.81,1.539,1.268
0.9995,,1.539,1.539,1.81,1.8125,2.6325,2.359,1.81,1.8195,
0.731,2.357,1.8125,2.088,,1.8125,2.088,1.544,1.544,1.0075,
1.8195,2.365,3.468,1.8125,1.268,0.905,1.1785,,2.636,1.8125,
