2211.755,3440.1205,259.964,1575.726,2256.0475,1198.1895,2685.789,0,164.6385,1827.7245,0
1709.4985,370.9245,226.254,103.6575,59.1685,744.196,33.9215,1199.493,4142.9405,1260.142,82.098
1485.8875,455.678,540.017,2197.0315,93.09,0,2970.274,0,694.142,841.102,0
0,615.85,824.86,1107.204,141.2665,103.6575,2567.482,124.2655,0,1137.6825,0
1396.269,2329.8805,6888.228,436.666,455.129,4433.8785,2433.3945,203.3245,1590.685,1168.6525,0
9959.4515,,824.86,2093.711,103.6575,287.743,872.226,164.196,3828.1515,967.6715,
5145.7215,463.487,0,0,,2285.582,3562.8405,222.646,1.161,591.02,
3256.9535,417.811,2300.4815,380.912,2626.623,1.161,0,,5334.531,1396.297,
